<?xml version="1.0" encoding="utf-8"?>
<!-- Generator: Adobe Illustrator 21.1.0, SVG Export Plug-In . SVG Version: 6.00 Build 0)  -->
<svg version="1.1" id="Layer_1" xmlns="http://www.w3.org/2000/svg" xmlns:xlink="http://www.w3.org/1999/xlink" x="0px" y="0px"
	 viewBox="0 0 28.3 28.2" style="enable-background:new 0 0 28.3 28.2;" xml:space="preserve">
<style type="text/css">
	.st0{fill:#FFFFFF;}
	.st1{fill:#2A2B77;}
	.st2{fill:#ED1C24;}
</style>
<g>
	<path class="st0" d="M14.2,0.2C8.1,0.2,2.9,4.1,1,9.5h26.5C25.5,4.1,20.3,0.2,14.2,0.2z"/>
	<path class="st1" d="M1.1,19.3h26.1c0.6-1.6,1-3.3,1-5.1c0-1.6-0.3-3.2-0.8-4.7H1c-0.5,1.5-0.8,3-0.8,4.7C0.2,16,0.5,17.7,1.1,19.3
		z"/>
	<path class="st2" d="M14.2,28.2c5.9,0,10.9-3.6,13-8.8h-26C3.2,24.6,8.3,28.2,14.2,28.2z"/>
	<path class="st2" d="M1.1,19.3c0,0,0,0.1,0.1,0.1h26c0,0,0-0.1,0.1-0.1H1.1z"/>
</g>
</svg>
